Bad Religion Lyric Sentiment Analysis
…
TF-IDF

Term frequency inverse document frequency (TF-IDF) is a technique used to find important words in a particular document - or song in this case. The results of the tf-idf calculation grouped by album are also not surprising. Most of the top words are used in the chorus of songs on that album - and thus repeated many times.

brwords <- brtidy %>% 
  count(word,album,sort=T)
total_words <- brwords %>% 
  group_by(album) %>% 
  summarise(total=sum(n))

total_words

## # A tibble: 24 x 2
##    album                        total
##    <chr>                        <int>
##  1 80-85                          166
##  2 Against The Grain             1370
##  3 Bad Religion                   283
##  4 Generator                      718
##  5 How Could Hell Be Any Worse?   952
##  6 Into The Unknown               418
##  7 New Maps of Hell              1371
##  8 No Control                     987
##  9 No Substance                  1108
## 10 Punk-O-Rama 8                  186
## # ... with 14 more rows
…
N-Grams

The tables show the highest frequency word pairs across the corpus. Again, many of these bigrams are found in the chorus, and their high frequency makes sense.

bigrams <- b %>% 
  unnest_tokens(bigram,lyrics,token='ngrams',n=2) 

bigrams %>% 
  separate(bigram, c('word1','word2'),sep=" ") %>% 
  filter(!word1 %in% stop_words$word) %>% 
  filter(!word2 %in% stop_words$word) %>% 
  count(word1, word2, sort=T)

## # A tibble: 3,848 x 3
##    word1    word2          n
##    <chr>    <chr>      <int>
##  1 21st     century       17
##  2 2nd      generation    14
##  3 trash    2nd           14
##  4 white    trash         14
##  5 fast     life          12
##  6 mediocre minds         11
##  7 american dream         10
##  8 bad      religion      10
##  9 yah      yah           10
## 10 american jesus          9
## # ... with 3,838 more rows

bigrams %>% 
  count(bigram,sort=T)

## # A tibble: 25,420 x 2
##    bigram        n
##    <chr>     <int>
##  1 in the      222
##  2 and the     135
##  3 of the      120
##  4 on the       92
##  5 to the       82
##  6 i don't      77
##  7 to be        75
##  8 the world    74
##  9 and i        70
## 10 just a       66
## # ... with 25,410 more rows
…
